Central Limit Theorem, Samping, Standard Error
…
Sampling from a Population

Automated Example

Take 100 random samples of size 5

print(n5)

## # A tibble: 100 x 1
##       avg
##     <dbl>
##  1 62200 
##  2 53600 
##  3 43600 
##  4 50400 
##  5 57794 
##  6 42800 
##  7 50600 
##  8 14200.
##  9 36000 
## 10 18000 
## #  with 90 more rows
…
Sampling from a Population

Automated Example

Take 100 random samples of size 10

print(n10)

## # A tibble: 100 x 1
##       avg
##     <dbl>
##  1 31400 
##  2 88965 
##  3 57100 
##  4 44700 
##  5 27800.
##  6 24600 
##  7 30800.
##  8 36000 
##  9 35400.
## 10 25800.
## #  with 90 more rows
…
#100 times
100 %>%
  #rerun the next command; sample_n takes random samples
  #na.omit deletes missing values, 5 is the size of the sample
  rerun(sample_n(na.omit(df), 100)) %>%
  #calculate the average of each sample
  map_df(~summarize(., avg=mean(Wages))) ->n100

Sampling from a Population

Take 100 random samples of size 100

print(n100)

## # A tibble: 100 x 1
##       avg
##     <dbl>
##  1 46540.
##  2 49404.
##  3 44853.
##  4 41060.
##  5 40520.
##  6 48926.
##  7 41006.
##  8 40895.
##  9 41640.
## 10 40970.
## #  with 90 more rows
…
#100 times
100 %>%
  #rerun the next command; sample_n takes random samples
  #na.omit deletes missing values, 5 is the size of the sample
  rerun(sample_n(na.omit(df), 500)) %>%
  #calculate the average of each sample
  map_df(~summarize(., avg=mean(Wages))) ->n500
#print the results

Sampling from a Population

print(n500)

## # A tibble: 100 x 1
##       avg
##     <dbl>
##  1 50220.
##  2 44236.
##  3 49160.
##  4 46720.
##  5 45482.
##  6 46250.
##  7 46211.
##  8 53598.
##  9 49307.
## 10 50789.
## #  with 90 more rows
…
